module gitlab.com/yyyolu/alist-baidu

go 1.18

require (
	github.com/aws/aws-sdk-go v1.27.0
	github.com/caarlos0/env/v6 v6.9.1
	github.com/eko/gocache/v2 v2.1.0
	github.com/gin-contrib/cors v1.3.1
	github.com/gin-gonic/gin v1.7.4
	github.com/go-resty/resty/v2 v2.6.0
	github.com/google/uuid v1.3.0
	github.com/jlaffaye/ftp v0.0.0-20211117213618-11820403398b
	github.com/json-iterator/go v1.1.12
	github.com/patrickmn/go-cache v2.1.0+incompatible
	github.com/pkg/sftp v1.13.4
	github.com/robfig/cron/v3 v3.0.0
	github.com/sirupsen/logrus v1.8.1
	github.com/upyun/go-sdk/v3 v3.0.2
	golang.org/x/text v0.3.7
	gorm.io/driver/mysql v1.3.2
	gorm.io/driver/postgres v1.3.1
	gorm.io/driver/sqlite v1.3.1
	gorm.io/gorm v1.23.1
)

require (
	github.com/fsnotify/fsnotify v1.5.1 // indirect
	github.com/hashicorp/hcl v1.0.0 // indirect
	github.com/kr/fs v0.1.0 // indirect
	github.com/magiconair/properties v1.8.6 // indirect
	github.com/mitchellh/mapstructure v1.4.3 // indirect
	github.com/pelletier/go-toml v1.9.4 // indirect
	github.com/pelletier/go-toml/v2 v2.0.0-beta.8 // indirect
	github.com/spf13/afero v1.8.2 // indirect
	github.com/spf13/jwalterweatherman v1.1.0 // indirect
	github.com/spf13/pflag v1.0.5 // indirect
	github.com/spf13/viper v1.11.0 // indirect
	github.com/subosito/gotenv v1.2.0 // indirect
	gopkg.in/alexcesaro/quotedprintable.v3 v3.0.0-20150716171945-2caba252f4dc // indirect
	gopkg.in/gomail.v2 v2.0.0-20160411212932-81ebce5c23df // indirect
	gopkg.in/ini.v1 v1.66.4 // indirect
	gopkg.in/yaml.v3 v3.0.0-20210107192922-496545a6307b // indirect
)

require (
	github.com/baiyubin/aliyun-sts-go-sdk v0.0.0-20180326062324-cfa1a18b161f // indirect
	github.com/fatih/color v1.13.0
	github.com/mattn/go-colorable v0.1.12 // indirect
	golang.org/x/time v0.0.0-20191024005414-555d28b269f0 // indirect
)

require (
	github.com/XiaoMi/pegasus-go-client v0.0.0-20210427083443-f3b6b08bc4c2 // indirect
	github.com/aliyun/aliyun-oss-go-sdk v2.2.1+incompatible
	github.com/beorn7/perks v1.0.1 // indirect
	github.com/bradfitz/gomemcache v0.0.0-20190913173617-a41fca850d0b // indirect
	github.com/cenkalti/backoff/v4 v4.1.0 // indirect
	github.com/cespare/xxhash/v2 v2.1.1 // indirect
	github.com/dgryski/go-rendezvous v0.0.0-20200823014737-9f7001d12a5f // indirect
	github.com/gin-contrib/sse v0.1.0 // indirect
	github.com/go-playground/locales v0.14.0 // indirect
	github.com/go-playground/universal-translator v0.18.0 // indirect
	github.com/go-playground/validator/v10 v10.9.0 // indirect
	github.com/go-redis/redis/v8 v8.9.0 // indirect
	github.com/go-sql-driver/mysql v1.6.0 // indirect
	github.com/golang/protobuf v1.5.2 // indirect
	github.com/jackc/chunkreader/v2 v2.0.1 // indirect
	github.com/jackc/pgconn v1.11.0 // indirect
	github.com/jackc/pgio v1.0.0 // indirect
	github.com/jackc/pgpassfile v1.0.0 // indirect
	github.com/jackc/pgproto3/v2 v2.2.0 // indirect
	github.com/jackc/pgservicefile v0.0.0-20200714003250-2b9c44734f2b // indirect
	github.com/jackc/pgtype v1.10.0 // indirect
	github.com/jackc/pgx/v4 v4.15.0 // indirect
	github.com/jinzhu/inflection v1.0.0 // indirect
	github.com/jinzhu/now v1.1.4 // indirect
	github.com/jmespath/go-jmespath v0.0.0-20180206201540-c2b33e8439af // indirect
	github.com/leodido/go-urn v1.2.1 // indirect
	github.com/mattn/go-isatty v0.0.14 // indirect
	github.com/mattn/go-sqlite3 v1.14.11 // indirect
	github.com/matttproud/golang_protobuf_extensions v1.0.1 // indirect
	github.com/modern-go/concurrent v0.0.0-20180306012644-bacd9c7ef1dd // indirect
	github.com/modern-go/reflect2 v1.0.2 // indirect
	github.com/pegasus-kv/thrift v0.13.0 // indirect
	github.com/prometheus/client_golang v1.10.0 // indirect
	github.com/prometheus/client_model v0.2.0 // indirect
	github.com/prometheus/common v0.18.0 // indirect
	github.com/prometheus/procfs v0.6.0 // indirect
	github.com/spf13/cast v1.4.1 // indirect
	github.com/ugorji/go/codec v1.2.6 // indirect
	go.opentelemetry.io/otel v0.20.0 // indirect
	go.opentelemetry.io/otel/metric v0.20.0 // indirect
	go.opentelemetry.io/otel/trace v0.20.0 // indirect
	golang.org/x/crypto v0.0.0-20220411220226-7b82a4e95df4
	golang.org/x/net v0.0.0-20220412020605-290c469a71a5
	golang.org/x/sys v0.0.0-20220412211240-33da011f77ad // indirect
	google.golang.org/protobuf v1.28.0 // indirect
	gopkg.in/natefinch/lumberjack.v2 v2.0.0 // indirect
	gopkg.in/tomb.v2 v2.0.0-20161208151619-d5d1b5820637 // indirect
	gopkg.in/yaml.v2 v2.4.0 // indirect
	k8s.io/apimachinery v0.0.0-20191123233150-4c4803ed55e3 // indirect
)
